<!DOCTYPE html>
<html>
<head>
    <meta charset="utf-8" />
    <meta name="viewport" content="width=device-width, initial-scale=1.0" />
    <title>Home Page - Web</title>

    
        <link rel="stylesheet" href="/lib/bootstrap/dist/css/bootstrap.css" />
        <link rel="stylesheet" href="/css/site.css" />
    
    
</head>
<body>
    <nav class="navbar navbar-inverse navbar-fixed-top">
        <div class="container">
            <div class="navbar-header">
                <button type="button" class="navbar-toggle" data-toggle="collapse" data-target=".navbar-collapse">
                    <span class="sr-only">Toggle navigation</span>
                    <span class="icon-bar"></span>
                    <span class="icon-bar"></span>
                    <span class="icon-bar"></span>
                </button>
                <a class="navbar-brand" href="/">Web</a>
            </div>
            <div class="navbar-collapse collapse">
                <ul class="nav navbar-nav">
                    <li><a href="/">Home</a></li>
                    <li><a href="/Home/About">About</a></li>
                    <li><a href="/Home/Contact">Contact</a></li>
                </ul>
                
                <div class="navbar-right">
                    <button type="button" class="btn btn-danger navbar-btn">LOG OUT</button>
                </div>
            </div>
        </div>
    </nav>

    



    <div class="container body-content">
        
<div id="myCarousel" class="carousel slide" data-ride="carousel" data-interval="6000">
    <ol class="carousel-indicators">
        <li data-target="#myCarousel" data-slide-to="0" class="active"></li>
        <li data-target="#myCarousel" data-slide-to="1"></li>
        <li data-target="#myCarousel" data-slide-to="2"></li>
    </ol>
    <div class="carousel-inner" role="listbox">
        <div class="item active">
            <img src="/images/banner1.svg" alt="ASP.NET" class="img-responsive" />
            <div class="carousel-caption" role="option">
                <p>
                    Learn how to build ASP.NET apps that can run anywhere.
                    <a class="btn btn-default" href="https://go.microsoft.com/fwlink/?LinkID=525028&clcid=0x409">
                        Learn More
                    </a>
                </p>
            </div>
        </div>
        <div class="item">
            <img src="/images/banner2.svg" alt="Visual Studio" class="img-responsive" />
            <div class="carousel-caption" role="option">
                <p>
                    There are powerful new features in Visual Studio for building modern web apps.
                    <a class="btn btn-default" href="https://go.microsoft.com/fwlink/?LinkID=525030&clcid=0x409">
                        Learn More
                    </a>
                </p>
            </div>
        </div>
        <div class="item">
            <img src="/images/banner3.svg" alt="Microsoft Azure" class="img-responsive" />
            <div class="carousel-caption" role="option">
                <p>
                    Learn how Microsoft's Azure cloud platform allows you to build, deploy, and scale web apps.
                    <a class="btn btn-default" href="https://go.microsoft.com/fwlink/?LinkID=525027&clcid=0x409">
                        Learn More
                    </a>
                </p>
            </div>
        </div>
    </div>
    <a class="left carousel-control" href="#myCarousel" role="button" data-slide="prev">
        <span class="glyphicon glyphicon-chevron-left" aria-hidden="true"></span>
        <span class="sr-only">Previous</span>
    </a>
    <a class="right carousel-control" href="#myCarousel" role="button" data-slide="next">
        <span class="glyphicon glyphicon-chevron-right" aria-hidden="true"></span>
        <span class="sr-only">Next</span>
    </a>
</div>

<div class="row">
    <div class="col-md-3">
        <h2>Application uses</h2>
        <ul>
            <li>Sample pages using ASP.NET Core MVC</li>
            <li>Theming using <a href="https://go.microsoft.com/fwlink/?LinkID=398939">Bootstrap</a></li>
        </ul>
    </div>
    <div class="col-md-3">
        <h2>How to</h2>
        <ul>
            <li><a href="https://go.microsoft.com/fwlink/?LinkID=398600">Add a Controller and View</a></li>
            <li><a href="https://go.microsoft.com/fwlink/?LinkId=699315">Manage User Secrets using Secret Manager.</a></li>
            <li><a href="https://go.microsoft.com/fwlink/?LinkId=699316">Use logging to log a message.</a></li>
            <li><a href="https://go.microsoft.com/fwlink/?LinkId=699317">Add packages using NuGet.</a></li>
            <li><a href="https://go.microsoft.com/fwlink/?LinkId=699319">Target development, staging or production environment.</a></li>
        </ul>
    </div>
    <div class="col-md-3">
        <h2>Overview</h2>
        <ul>
            <li><a href="https://go.microsoft.com/fwlink/?LinkId=518008">Conceptual overview of what is ASP.NET Core</a></li>
            <li><a href="https://go.microsoft.com/fwlink/?LinkId=699320">Fundamentals of ASP.NET Core such as Startup and middleware.</a></li>
            <li><a href="https://go.microsoft.com/fwlink/?LinkId=398602">Working with Data</a></li>
            <li><a href="https://go.microsoft.com/fwlink/?LinkId=398603">Security</a></li>
            <li><a href="https://go.microsoft.com/fwlink/?LinkID=699321">Client side development</a></li>
            <li><a href="https://go.microsoft.com/fwlink/?LinkID=699322">Develop on different platforms</a></li>
            <li><a href="https://go.microsoft.com/fwlink/?LinkID=699323">Read more on the documentation site</a></li>
        </ul>
    </div>
    <div class="col-md-3">
        <h2>Run &amp; Deploy</h2>
        <ul>
            <li><a href="https://go.microsoft.com/fwlink/?LinkID=517851">Run your app</a></li>
            <li><a href="https://go.microsoft.com/fwlink/?LinkID=517853">Run tools such as EF migrations and more</a></li>
            <li><a href="https://go.microsoft.com/fwlink/?LinkID=398609">Publish to Microsoft Azure Web Apps</a></li>
        </ul>
    </div>
</div>

        <hr />
        <footer>
            <p>&copy; 2018 - Web</p>
        </footer>
    </div>

    
        <script src="/lib/jquery/dist/jquery.js"></script>
        <script src="/lib/bootstrap/dist/js/bootstrap.js"></script>
        <script src="/js/site.js?v=4q1jwFhaPaZgr8WAUSrux6hAuh0XDg9kPS3xIVq36I0"></script>
    
    

    
</body>
</html>
